<svg width="24" height="24" viewBox="0 0 24 24" fill="none" xmlns="http://www.w3.org/2000/svg">
<path d="M23 23H1V15.587V8.17391V1H23V8.17391V15.587V23Z" fill="#141414"/>
<path d="M1 8.17391V1H23V8.17391M1 8.17391H23M1 8.17391V15.587M23 8.17391V15.587M23 15.587V23H1V15.587M23 15.587H1" stroke="#C4C8CB" stroke-width="2"/>
</svg>
