<svg width="21" height="20" viewBox="0 0 21 20" fill="none" xmlns="http://www.w3.org/2000/svg">
<path d="M10.35 10.65C10.2917 10.6417 10.2167 10.6417 10.15 10.65C8.68333 10.6 7.51666 9.40004 7.51666 7.92504C7.51666 6.41671 8.73333 5.19171 10.25 5.19171C11.7583 5.19171 12.9833 6.41671 12.9833 7.92504C12.975 9.40004 11.8167 10.6 10.35 10.65Z" stroke="#3A3A3A" stroke-width="1.5" stroke-linecap="round" stroke-linejoin="round"/>
<path d="M15.8667 16.1501C14.3834 17.5084 12.4167 18.3334 10.25 18.3334C8.08336 18.3334 6.1167 17.5084 4.63336 16.1501C4.7167 15.3668 5.2167 14.6001 6.10836 14.0001C8.3917 12.4834 12.125 12.4834 14.3917 14.0001C15.2834 14.6001 15.7834 15.3668 15.8667 16.1501Z" stroke="#3A3A3A" stroke-width="1.5" stroke-linecap="round" stroke-linejoin="round"/>
<path d="M10.25 18.3333C14.8524 18.3333 18.5834 14.6023 18.5834 9.99996C18.5834 5.39759 14.8524 1.66663 10.25 1.66663C5.64765 1.66663 1.91669 5.39759 1.91669 9.99996C1.91669 14.6023 5.64765 18.3333 10.25 18.3333Z" stroke="#3A3A3A" stroke-width="1.5" stroke-linecap="round" stroke-linejoin="round"/>
</svg>
